{
  "dashboard": {
    "id": null,
    "uid": null,
    "title": "Demo Loki from the API",
    "tags": [
      "API",
      "Demo"
    ],
    "timezone": "browser",
    "refresh": "auto",
    "liveNow": false,
    "style": "dark",
    "panels": [
      {
        "datasource": {
          "type": "loki",
          "uid": "loki"
        },
        "fieldConfig": {
          "defaults": {
            "custom": {
              "align": "auto",
              "cellOptions": {
                "type": "auto"
              },
              "inspect": false
            },
            "mappings": [],
            "thresholds": {
              "mode": "absolute",
              "steps": [
                {
                  "color": "green",
                  "value": null
                },
                {
                  "color": "red",
                  "value": 80
                }
              ]
            }
          },
          "overrides": []
        },
        "gridPos": {
          "h": 14,
          "w": 23,
          "x": 0,
          "y": 0
        },
        "id": 1,
        "options": {
          "cellHeight": "sm",
          "footer": {
            "countRows": false,
            "fields": "",
            "reducer": [
              "sum"
            ],
            "show": false
          },
          "showHeader": true
        },
        "pluginVersion": "10.1.0",
        "targets": [
          {
            "datasource": {
              "type": "loki",
              "uid": "loki"
            },
            "editorMode": "builder",
            "expr": "{application=\"demo-concepts\"}",
            "hide": false,
            "queryType": "range",
            "refId": "A"
          }
        ],
        "title": "A new panel",
        "type": "table"
      }
    ]
  },
  "folderUid": "fa02c958-c3f2-46d7-8607-b2321ffb75bf",
  "message": "Made changes to xyz",
  "overwrite": false
}